…
El código base de R utiliza ```data.frame``` a la hora de representar datos en tablas. Sin embargo, estos son un poco antiguos y a veces se hace un poco engorroso trabajar con ellos. Tidyverse trata de solucionar esto empleando el paquete **_tibble_**.

Los _tibbles_ funcionan muy parecido a los ```data.frame```, pero presentan características que los hace mucho más sencillo trabajar con ellos:

- Son mucho **más rápidos**.
- **No transforman** los vectores de caracteres **a factores**, cosa que sí ocurre con los ```data.frame```.
- Son **más reproducibles**, es decir, es más probable que aquellos que trabajen con los mismos datos que tú lleguen a los mismos resultados.

Podemos transformar cualquier ```data.frame``` en un _tibble_ empleando ```as_tibble()```. Empleemos esta función con ```iris```, un ```data.frame``` incluido en R:

```r
as_tibble(iris)
```
```
# A tibble: 150 x 5
   Sepal.Length Sepal.Width Petal.Length Petal.Width Species
          <dbl>       <dbl>        <dbl>       <dbl> <fct>  
 1          5.1         3.5          1.4         0.2 setosa 
 2          4.9         3            1.4         0.2 setosa 
 3          4.7         3.2          1.3         0.2 setosa 
 4          4.6         3.1          1.5         0.2 setosa 
 5          5           3.6          1.4         0.2 setosa 
 6          5.4         3.9          1.7         0.4 setosa 
 7          4.6         3.4          1.4         0.3 setosa 
 8          5           3.4          1.5         0.2 setosa 
 9          4.4         2.9          1.4         0.2 setosa 
10          4.9         3.1          1.5         0.1 setosa 
# ... with 140 more rows
```
…
